{
  "$schema": "https://github.com/fastfetch-cli/fastfetch/raw/dev/doc/json_schema.json",
  "modules": [
	  {
            "type": "title",
            "key": "       User "
        },
    {
    "type": "custom",
            "format": "┌──────────────────────────────────────────┐"
    },
    "break",
    {
            "type": "os",
            "key": "    OS",
            "keyColor": "magenta"
        },
{
            "type": "packages",
            "key": "    Packages",
            "keyColor": "magenta"
        },
        {
            "type": "wm",
            "key": "    WM",
            "keyColor": "magenta"
        },
        {
            "type": "terminal",
            "key": "    Terminal",
            "keyColor": "magenta"
        },
	{
            "type": "cpu",
            "format": "{1}",
            "key": "    CPU",
            "keyColor": "magenta"
        },
        {
            "type": "gpu",
            "format": "{2}",
            "key": "    GPU",
            "keyColor": "magenta"
        },
        {
            "type": "gpu",
            "format": "{3}",
            "key": "    GPU Driver",
            "keyColor": "magenta"
        },
        {
             "type": "memory",
            "key": "    Memory",
            "keyColor": "magenta"
        },
	{
            "type": "uptime",
            "key": "    Uptime ",
            "keyColor": "magenta"
        },
	{
	    "type": "media",
	    "key": "    Music",
	    "keyColor": "magenta"
	},
	"break",
	{
            "type": "custom",
            "format": "└──────────────────────────────────────────┘"
        },
	"break",
	{
            "type": "colors",
            "paddingLeft": 14,
            "symbol": "square"
        },
  ]
}
